{
  "userdefinedName":true,
  "columns":[
    {
      "name":"name",
      "boAttrId":"uid{Khi5.aHgCO6pOrvNf9IFZSoBh}",
      "width":120,
      "position":0
    },
    {
      "name":"bemerkung",
      "boAttrId":"uid{Khi5.6jSncYcDgX7dzWISQUOn}",
      "width":120,
      "position":1
    }
  ]
}