{
  "userdefinedName":true,
  "columns":[
    {
      "name":"articleNumber",
      "boAttrId":"uid{Khi5.TF2p577hZK4GG70L09kW}",
      "width":166,
      "position":0,
      "sort":{
        "direction":"desc",
        "prio":1
      }
    },
    {
      "name":"name",
      "boAttrId":"uid{Khi5.YxfVOziAWTMsgkLodQk3}",
      "width":167,
      "position":1
    },
    {
      "name":"price",
      "boAttrId":"uid{Khi5.ZAVTJqVqe3ToyhsvtZnA}",
      "width":156,
      "position":2
    },
    {
      "name":"active",
      "boAttrId":"uid{Khi5.CIMJ96gu0QvQZVPvfHAo}",
      "width":157,
      "position":3
    },
    {
      "name":"category",
      "boAttrId":"uid{Khi5.9oCx1vS0kekARTAtSeuN}",
      "width":120,
      "position":4
    },
    {
      "name":"image",
      "boAttrId":"uid{Khi5.gX7c8OJbuG3ceUe6eyK0}",
      "width":40,
      "position":5
    }
  ]
}