{
  "sideviewMenuWidth":200,
  "userdefinedName":true,
  "columns":[
    {
      "name":"nuclosStateIcon",
      "boAttrId":"uid{Khi5.A3wu3cgTYSt3iXx8mIeH8}",
      "selected":true,
      "position":0
    },
    {
      "name":"orderNumber",
      "boAttrId":"uid{Khi5.DehvMLszOxRH2OHMcl5D}",
      "selected":true,
      "position":1
    },
    {
      "name":"customerAddress",
      "boAttrId":"uid{Khi5.91cxckSRNQyaKskdj0Zl}",
      "selected":true,
      "position":2
    },
    {
      "name":"orderDate",
      "boAttrId":"uid{Khi5.sgVvrtGMgTS4B8l6MuOw}",
      "selected":true,
      "position":3
    },
    {
      "name":"deliveryDate",
      "boAttrId":"uid{Khi5.3YiIdfSeqeqmmnb2ZOpW}",
      "selected":true,
      "position":4
    },
    {
      "name":"discount",
      "boAttrId":"uid{Khi5.15f8oxrX6cSka7yq0jTS}",
      "selected":true,
      "position":5
    },
    {
      "name":"approvedcreditlimit",
      "boAttrId":"uid{Khi5.FJaYvsscbnStZpX8v7ex}",
      "selected":true,
      "position":6
    },
    {
      "name":"confirmation",
      "boAttrId":"uid{Khi5.ZGlXxHscatQLBoGWXmjm}",
      "selected":true,
      "position":7
    },
    {
      "name":"order",
      "boAttrId":"uid{Khi5.8UBP3lSkRvpQN5161M7m}",
      "selected":true,
      "position":8
    },
    {
      "name":"note",
      "boAttrId":"uid{Khi5.mkbW5XHJG69FyoxBA4uE}",
      "width":200,
      "selected":true,
      "position":9
    },
    {
      "name":"sendDate",
      "boAttrId":"uid{Khi5.X8rGwHEZYlzAREmnaKun}",
      "selected":true,
      "position":10
    },
    {
      "name":"rechnung",
      "boAttrId":"uid{Khi5.uE63EntKfsZPwpTPSowc}",
      "selected":true,
      "position":11
    },
    {
      "name":"nuclosState",
      "boAttrId":"uid{Khi5.A3wu3cgTYSt3iXx8mIeH6}",
      "selected":true,
      "position":12
    },
    {
      "name":"nuclosProcess",
      "boAttrId":"uid{Khi5.A3wu3cgTYSt3iXx8mIeH10}",
      "selected":true,
      "position":13
    },
    {
      "name":"notmodifiable",
      "boAttrId":"uid{Khi5.BscGgRLzNldaiWhnxZkO}",
      "position":14,
      "selected":true
    }
  ]
}